{
  "type": "service_account",
  "project_id": "onlinelessons-587ab",
  "private_key_id": "edb15cc87097fcd25c77551c315c8b67ccdef989",
  "private_key": "-----BEGIN PRIVATE KEY-----\nMIIEvgIBADANBgkqhkiG9w0BAQEFAASCBKgwggSkAgEAAoIBAQDyfrq41BniUlZq\nBX1GYSOFEp3Ys2F5BXmBXpbrZ2fD/i8CdMo0Ed5SXyHQHkAzDcp8/bUz/gVXmLdP\nz3p4r3ja4G7ObPWP8jDIymj9M90ZlLlFYS7IXKylO9lH4VvE7xXmAZFPU0ZL/sTv\nZn2KcjLKg9K4bzUrLO1dajILDlD+O6i0cd9NaWgM8ApbpT+KhjCghLXrAPAw5jcX\njtqJgXkLQytVdF0yiuYfLq6HAX2o8C6jkU0pOFtAFJepsr0iFxRsF0dzw7ular1p\ns0WXZGFbfzE6XTi1xpNSfUVKzz1L8PXAluOQjilQ+JPBH9AUC8yXVH/i7nx2pZJY\nhOG7MDL9AgMBAAECggEAVLm2n7Frwcmm67AzTw3NjUct43L5UYF6LJtR+7nLZY0/\n+4m2xG6h0QHwHHkVUUE2SGmUkC/mye5PzhDd56DXhxH3ZSRov/yM0vr1p9IhJDj0\naqtD3zmSEMFSb2zr1Wj7q7tMe/zKiO7g/AxBPMgduuhIDay9VPKDlKnwBjDgV5Lu\ng3hVdbw6604jF2HxeDbU1QpIofoexfNvSDLtGGlXXZbWeh5Si8vBlVCCzisn6oxJ\nHFxIQzux07KvYlQnboSqs9T2uuX3+rrn4tdGb2mB9VNYi2UmdVYCc8FeV4BO1Ifa\nDLtsymyIe3FATwtGwTtD1CjBWHEQ7cESZExaKU/feQKBgQD9M1kEGSKEkE5uVjvt\nTLySNlobvPJl095oNhK2HaCq/tBOXI9CBN6UgwOYPZcNTYBBKlKcOiUv3z4SExiC\ncJIfx0rBVqSxSydgnhkGGcIDzR4STr+eOgFZrOJQToDswfyWQfWL/ZN9Dddi5QLe\nJs8e7wpoPk8YlLdfWdeluv5KZwKBgQD1LRS7S7D6yotP4/50ANSs4hIfJvAZn5JW\nTBhhNBAIISyVuPVr604fd4Tn7UVA0rQP/YLh3PD90LjLEmpFCeKV9z58lwU0bSXA\nO7PnLu11HUSLzjF404GFeO6VGJWHEMzg8+Rh/t+4C9YWF3BZpjLwnBi/0mOViPW7\nnyV1iXDA+wKBgDZtu0zuOkVU4AdH8knonQCxPl2IGHNbQAwW057ib49Sh2TQ8Nq4\nQUCbiUJIuxfY+SEJAAklVqkbzDQGdtZTbJX4OVGmVnDmPui+E5MEJni6tyQoWXih\n73hfeabZuU0rxihmtWoKcJIJT6uqnxsyLIPxzsLp4gbesSyGG508vT0xAoGBAOSj\nEb5IK9b0o03xVA1h6PMAL94VNbrvcExB0kpzfq/WH/nP7i6h1MzLbInMXtTAqWJw\nC2oN3D8WMf5OQgP33/HyC7esLhJh5t6Jzo881/xrOs0VkFUZCKQrznID5w15wVXW\nm5g3UvITN6aKXR99Oevf5cScsnl0q5Q4KXqenSOZAoGBAJsbZcE9yNiHkh6jksjf\nRtY5tfq7vWavZrApof5sl4ZQEaBR1jMMvY41rSTG2iRjamltRy2ZvXdjfM3i2HMX\nLqX9GJFns9tna56PCPZF/alB2Ablqma0Ps2jBKNsvoJkhh8IZyqkLt/ZEv8GjemT\nSGfamMuSdl2kuntPjJI0pKo8\n-----END PRIVATE KEY-----\n",
  "client_email": "firebase-adminsdk-38vjk@onlinelessons-587ab.iam.gserviceaccount.com",
  "client_id": "113287380308429591656",
  "auth_uri": "https://accounts.google.com/o/oauth2/auth",
  "token_uri": "https://accounts.google.com/o/oauth2/token",
  "auth_provider_x509_cert_url": "https://www.googleapis.com/oauth2/v1/certs",
  "client_x509_cert_url": "https://www.googleapis.com/robot/v1/metadata/x509/firebase-adminsdk-38vjk%40onlinelessons-587ab.iam.gserviceaccount.com"
}
